Grupo8\Hairphoria\service\UsuarioService.class
Grupo8\Hairphoria\service\Interfaces\ITokenBlacklistService.class
Grupo8\Hairphoria\dto\Horario\HorarioRequest.class
Grupo8\Hairphoria\dto\Cliente\ClienteRequest.class
Grupo8\Hairphoria\controller\ClienteController.class
Grupo8\Hairphoria\entity\Termino.class
Grupo8\Hairphoria\HairphoriaApplication.class
Grupo8\Hairphoria\service\TurnoService.class
Grupo8\Hairphoria\repository\IClienteRepository.class
Grupo8\Hairphoria\service\TokenBlacklistService.class
Grupo8\Hairphoria\controller\AWSController.class
Grupo8\Hairphoria\controller\UbicacionController.class
Grupo8\Hairphoria\Util\SafeUtil.class
Grupo8\Hairphoria\service\MailService.class
Grupo8\Hairphoria\entity\Atributo.class
Grupo8\Hairphoria\service\Interfaces\IProfesionalService.class
Grupo8\Hairphoria\dto\Stat\StatRequest.class
Grupo8\Hairphoria\service\AWSService.class
Grupo8\Hairphoria\config\AWSConfiguration.class
Grupo8\Hairphoria\dto\Auth\RolChangeRequest.class
Grupo8\Hairphoria\dto\HorasOcupadas\HorasOcupadasResponse.class
Grupo8\Hairphoria\service\Interfaces\IStatService.class
Grupo8\Hairphoria\dto\Horario\HorarioResponse.class
Grupo8\Hairphoria\dto\Servicio\ServicioFavoritoResponse.class
Grupo8\Hairphoria\repository\IStatRepository.class
Grupo8\Hairphoria\service\CategoriaService.class
Grupo8\Hairphoria\service\Interfaces\IServiceService.class
Grupo8\Hairphoria\dto\Ubicacion\UbicacionRequest.class
Grupo8\Hairphoria\dto\Usuario\UsuarioTurnoResponse.class
Grupo8\Hairphoria\service\AuthService.class
Grupo8\Hairphoria\controller\CategoriaController.class
Grupo8\Hairphoria\service\Interfaces\IAWSService.class
Grupo8\Hairphoria\dto\Servicio\ServicioResponse.class
Grupo8\Hairphoria\entity\TerminoCampo.class
Grupo8\Hairphoria\service\Interfaces\IUsuarioService.class
Grupo8\Hairphoria\controller\AuthController.class
Grupo8\Hairphoria\Util\Utils.class
Grupo8\Hairphoria\service\Interfaces\IUbicacionService.class
Grupo8\Hairphoria\dto\Auth\AuthResponse.class
Grupo8\Hairphoria\repository\IPalabraClaveRepository.class
Grupo8\Hairphoria\entity\Stat.class
Grupo8\Hairphoria\dto\Cliente\ClienteResponse.class
Grupo8\Hairphoria\repository\ITerminoCampoRepository.class
Grupo8\Hairphoria\service\Interfaces\IClienteService.class
Grupo8\Hairphoria\entity\HorarioDia.class
Grupo8\Hairphoria\exceptions\BadRequestException.class
Grupo8\Hairphoria\dto\Profesional\ProfesionalResponse.class
Grupo8\Hairphoria\exceptions\ResourceNotFoundException.class
Grupo8\Hairphoria\entity\Categoria.class
Grupo8\Hairphoria\dto\Servicio\ServicioRequest.class
Grupo8\Hairphoria\dto\Turno\TurnoResponse.class
Grupo8\Hairphoria\entity\Profesional.class
Grupo8\Hairphoria\repository\IAtributoRepository.class
Grupo8\Hairphoria\config\SecurityConfiguration.class
Grupo8\Hairphoria\controller\TurnoController.class
Grupo8\Hairphoria\entity\Horario.class
Grupo8\Hairphoria\repository\IImagenRepository.class
Grupo8\Hairphoria\dto\Termino\TerminoRequest.class
Grupo8\Hairphoria\repository\ICategoriaRepository.class
Grupo8\Hairphoria\repository\IHorarioRepository.class
Grupo8\Hairphoria\exceptions\GlobalException.class
Grupo8\Hairphoria\service\Interfaces\IAuthService.class
Grupo8\Hairphoria\repository\IHorarioDiaRepository.class
Grupo8\Hairphoria\service\ClienteService.class
Grupo8\Hairphoria\dto\Servicio\ServicioTurnoResponse.class
Grupo8\Hairphoria\dto\Stat\StatResponse.class
Grupo8\Hairphoria\service\Interfaces\ITurnoService.class
Grupo8\Hairphoria\dto\Ubicacion\UbicacionResponse.class
Grupo8\Hairphoria\entity\Turno.class
Grupo8\Hairphoria\repository\IServicioRepository.class
Grupo8\Hairphoria\dto\Usuario\UsuarioRequest.class
Grupo8\Hairphoria\entity\Dias.class
Grupo8\Hairphoria\entity\Imagen.class
Grupo8\Hairphoria\entity\PalabraClave.class
Grupo8\Hairphoria\dto\Categoria\CategoriaResponse.class
Grupo8\Hairphoria\entity\HorarioHora.class
Grupo8\Hairphoria\entity\Cliente.class
Grupo8\Hairphoria\dto\Profesional\ProfesionalRequest.class
Grupo8\Hairphoria\entity\Servicio.class
Grupo8\Hairphoria\filter\Tokenfilter.class
Grupo8\Hairphoria\service\Interfaces\IMailService.class
Grupo8\Hairphoria\dto\Termino\TerminoResponse.class
Grupo8\Hairphoria\repository\IHorarioHoraRepository.class
Grupo8\Hairphoria\entity\Usuario.class
Grupo8\Hairphoria\entity\Ubicacion.class
Grupo8\Hairphoria\repository\IUbicacionRepository.class
Grupo8\Hairphoria\repository\IProfesionalRepository.class
Grupo8\Hairphoria\service\Interfaces\ICategoriaService.class
Grupo8\Hairphoria\repository\ITurnoRepository.class
Grupo8\Hairphoria\dto\Auth\ValidateMessageResponse.class
Grupo8\Hairphoria\repository\IRolRepository.class
Grupo8\Hairphoria\dto\Auth\EmailRequest.class
Grupo8\Hairphoria\entity\Rol.class
Grupo8\Hairphoria\dto\Auth\AuthRequest.class
Grupo8\Hairphoria\controller\StatController.class
Grupo8\Hairphoria\dto\Categoria\CategoriaRequest.class
Grupo8\Hairphoria\service\UbicacionService.class
Grupo8\Hairphoria\dto\Error\ErrorResponse.class
Grupo8\Hairphoria\dto\Usuario\UsuarioResponse.class
Grupo8\Hairphoria\exceptions\UnauthorizedException.class
Grupo8\Hairphoria\repository\ITerminoRepository.class
Grupo8\Hairphoria\controller\ProfesionalController.class
Grupo8\Hairphoria\repository\IUsuarioRepository.class
Grupo8\Hairphoria\controller\ServicioController.class
Grupo8\Hairphoria\entity\UsuarioRol.class
Grupo8\Hairphoria\service\ProfesionalService.class
Grupo8\Hairphoria\service\StatService.class
Grupo8\Hairphoria\service\ServicioService.class
Grupo8\Hairphoria\dto\Turno\TurnoRequest.class
Grupo8\Hairphoria\Util\UtilDateTime.class
